@SysMemForKernel
0x1C1FBFE7:0xAF85EB1B //NID RESOLVED
0x002BA296:0x54DEFDA7 //NID RESOLVED
0x03808C51:0xD94A5183 //NID RESOLVED
0xC9805775:0xF9475C1A //NID RESOLVED
0xEB7A74DB:0x25C56981 //NID RESOLVED
0x636C953B:0x6D161EE2 //NID RESOLVED
0x7B749390:0xDB836ADB //NID RESOLVED
0xA823047E:0x61F1BD6F //NID RESOLVED
0x55A40B2C:0xF5E82409 //NID RESOLVED
0xE6581468:0x7BE9653E //NID RESOLVED
0xBB90D841:0x4ACD4065 //NID RESOLVED
0x9697CD32:0xE10F21CF //NID RESOLVED
0xA2A65F0E:0x0FCC1DB5 //NID RESOLVED
0x237DBD4F:0x4621A9CC //NID RESOLVED
0xCE5544F4:0xAA8D7285 //NID RESOLVED
0x5EBE73DE:0x0B791D79 //NID RESOLVED
0x915EF4AC:0xC8D26E46 //NID RESOLVED
0x82CCA14F:0x2C66EDAD //NID RESOLVED
0xEE867074:0x30D2160C //NID RESOLVED
0xB6D61D02:0x8FDAFC4C //NID RESOLVED
0x2A3E5280:0xE5799DEE //NID RESOLVED
0x9D9A5BA1:0x52B54B93 //NID RESOLVED
0xA089ECA4:0x2CFE3B22 //NID RESOLVED
0x2F808748:0x09DF9219 //NID RESOLVED
0x1C4B1713:0x653512FD //NID RESOLVED
0x0D1D8AC8:0x13CD48DA //NID RESOLVED
0x97B18FA8:0xD9B4E550 //NID RESOLVED
0xE40D3A1D:0x9C6BBA4B //NID RESOLVED
0xCE8D3DB3:0x5B7174DF //NID RESOLVED
0x55E4719C:0x47BEE932 //NID RESOLVED
0x6D8E0CDF:0x80C7689B //NID RESOLVED
0xC7E57B9C:0x9F154FA1 //NID RESOLVED
0xA262FEF0:0x966EB2BE //NID RESOLVED
0xF91FE6AA:0x2A3505B9 //NID RESOLVED
0xFC114573:0xF0E0AB7A //NID RESOLVED
0xDEC0A0D8:0xD3E4C505 //NID RESOLVED
0x7ECBDBD9:0xF7125FA4 //NID RESOLVED
0x9C304ED7:0xED6B1D87 //NID RESOLVED
0xF4390489:0xA51E2C33 //NID RESOLVED
0x419DB8F4:0x25A760F0 //NID RESOLVED
0xA1ACEA31:0x288B090A //NID RESOLVED
0x7B3E7441:0x6FBF9146 //NID RESOLVED
0xE0058030:0x7364BD00 //NID RESOLVED
0x719792F1:0x59B2DB30 //NID RESOLVED
0x101C3E59:0xEC0C0088 //NID RESOLVED
0xB2C7AA36:0x00E9A04A //NID RESOLVED
0x6C1DCD41:0x9671866E //NID RESOLVED
0x5367923C:0x64532109 //NID RESOLVED
0x6CD838EC:0x57AC6611 //NID RESOLVED
0xCE05CCB7:0xEF680DB5 //NID RESOLVED
0xAD09C397:0xD1234ABF //NID RESOLVED
0x89A74008:0x9467BAA4 //NID RESOLVED
0x55BFD686:0xC2B5C32B //NID RESOLVED
0xFEFC8666:0x2D2CFBB3 //NID RESOLVED
0xD1BAB054:0xCE7B6B41 //NID RESOLVED
0x1C221A08:0x2740C87A //NID RESOLVED
0x2E3402CC:0x85F4CFF6 //NID RESOLVED
0x39357F07:0x208F4820 //NID RESOLVED
0x8F20C4C0:0x5E58B140 //NID RESOLVED
0xCF4DE78C:0x3DE3C6DF //NID RESOLVED
0x41FFC7F9:0xCB9582C4 //NID RESOLVED
0x82D3CEE3:0xC0CDE394 //NID RESOLVED
0xFC207849:0x6316DAC9 //NID RESOLVED
0x536AD5E1:0xF3C729A6 //NID RESOLVED
0xDFAEBD5B:0x6A2C4A07 //NID RESOLVED
0x7BE95FA0:0x53EFCC89 //NID RESOLVED
0xFE8DEBE0:0x41E50FA6 //NID RESOLVED
0xF6C10E27:0x6174D377 //NID RESOLVED
0xE0645895:0x06BF45B1 //NID RESOLVED
0x1890BE9C:0x3091BF11 //NID RESOLVED
0x03072750:0xF3BE5639 //NID RESOLVED
0x811BED79:0x49D9F84F //NID RESOLVED
0xCDA3A2F7:0xF2FEAFD5 //NID RESOLVED
0x960B888C:0x78A1500D //NID RESOLVED
0xCBB05241:0x72DB42EC //NID RESOLVED
0x2269BFA2:0x24159F2C //NID RESOLVED
0xCD617A94:0x3C4C5630 //NID RESOLVED
0xF77D77CB:0x13DC7920 //NID RESOLVED
0x38495D84:0x6D336C84 //NID RESOLVED
0x6373995D:0x458A70B5 //NID RESOLVED
0x29A5899B:0xE0A74F2D //NID RESOLVED
0x071D9804:0xDF0A82F7 //NID RESOLVED
0x02786087:0x2F64305B //NID RESOLVED
0x1F7F7F40:0xFCDCADE4 //NID RESOLVED
0x049CC735:0xB6ACE0D6 //NID RESOLVED
0x39351245:0x728E1A2C //NID RESOLVED
0xD2E3A399:0x0D0F4EED //NID RESOLVED
0x4852F8DD:0x94FD149B //NID RESOLVED
0x4EC43DC4:0xF37DF2FA //NID RESOLVED
0x1F01A9E2:0x48F77207 //NID RESOLVED
0xB9F8561C:0x6A0550EA //NID RESOLVED
0x9452B542:0xAD718612 //NID RESOLVED
0x3FC9AE6A:0x5E8DCA05 //NID RESOLVED
0x452E3696:0xD9A4D69E //NID RESOLVED
0x95F5E8DA:0x604C20C4 //NID RESOLVED
0xEF2EE8C1:0x38F4EBDC //NID RESOLVED
0x6C0F54C2:0x03DE6D4D 
0x44403DD7:0xB4A94916 
0xA2082290:0x57A32F01 
0x4D5BA871:0xE82F9E1B 
0x71E43E38:0x61BFD5D4 
0xC5A01FE3:0x3125AAC7 
0xD391637C:0x60AD6915 
0x6B420D1E:0x83FA75D7 
@LoadCoreForKernel
0x99A695F0:0x211FEA3D //NID RESOLVED
0x9BAF90F6:0xA2317745 //NID RESOLVED
0x0E760DBA:0x6565B132 //NID RESOLVED
0x14C57306:0xB81A0630 //NID RESOLVED
0x7E63F86D:0xE96FE2F9 //NID RESOLVED
0xB370DF29:0x093B2B69 //NID RESOLVED
0x5248A98F:0xDA42ED6E //NID RESOLVED
0x4440853B:0x67F8DA3F //NID RESOLVED
0xFA3101A4:0x12A85ED1 //NID RESOLVED
0x5873A31F:0x407355A9 //NID RESOLVED
0x0B464512:0x2C145AD7 //NID RESOLVED
0x0DE1F600:0x72ACE067 //NID RESOLVED
0xC0913394:0x07738DC3 //NID RESOLVED
0x0C0D8B7F:0xDA143BE9 //NID RESOLVED
0xC99DD47A:0xCA78DE3E //NID RESOLVED
0x616FCCCD:0xE7053775 //NID RESOLVED
0x3BB7AC18:0x81210CE1 //NID RESOLVED
0xACE23476:0x563CB22E //NID RESOLVED
0xEC20C661:0xF871EA38 //NID RESOLVED
0x7BE1421C:0x01DB1EB3 //NID RESOLVED
0xBF983EF2:0x7B411250 //NID RESOLVED
0x7068E6BA:0x2A7DAC42 //NID RESOLVED
0xB4D6FECC:0x1C55195C //NID RESOLVED
0x54AB2675:0xDD3AC2A8 //NID RESOLVED
0xCDCAA8B2:0x7396DD7E //NID RESOLVED
0xCD0F3BAC:0x03A5DC1A //NID RESOLVED
0x8D8A8ACE:0x557A5FCE //NID RESOLVED
0x74CF001A:0x58EDE585 //NID RESOLVED
0x05D915DB:0x92082A0F //NID RESOLVED
0x52A86C21:0xAA178840 //NID RESOLVED
0x6B2371C2:0x08581343 //NID RESOLVED
0xAFF947D4:0xF39800BF //NID RESOLVED
0xAE7C6E76:0xD127FC6F //NID RESOLVED
0xCF8A41B1:0xEF8A0BEA //NID RESOLVED
0xFB8AE27D:0x312CA47E //NID RESOLVED
0xA6D40F56:0x18CFDAA0 //NID RESOLVED
0xCCE4A157:0xED53894F //NID RESOLVED
0x929B5C69:0xE15347E9 //NID RESOLVED
0x2952F5AC:0xDF0EE366 //NID RESOLVED
0xD8779AC6:0x8D46E9DF //NID RESOLVED
@ModuleMgrForKernel
0x6DE9FF11:0x32292450 //NID RESOLVED
0xA1A78C58:0x4986499C //NID RESOLVED
0x896C15B6:0xD1F71B4D //NID RESOLVED
0x92EDEBD0:0x057BEB8E //NID RESOLVED
0x1B91F6EC:0xCC77F137 //NID RESOLVED
0x6723BBFF:0xC350D8D6 //NID RESOLVED
0x49C5B9E1:0x4535F1C2 //NID RESOLVED
0xECC2EAA9:0xDE11DF6A //NID RESOLVED
0xF07E1A2F:0x6EF2EC4B //NID RESOLVED
0x0CE03872:0xD162C43D //NID RESOLVED
0x245B698D:0x32292450 //NID RESOLVED
0xA4370E7C:0x8909A807 //NID RESOLVED
0x91B87FAE:0x449CF94D //NID RESOLVED
0x977DE386:0xFFB9B760 //NID RESOLVED
0xB7F46618:0xA84CDD60 //NID RESOLVED
0x3E4FEDDC:0xAFBC3911 //NID RESOLVED
0xAB77DC5A:0x7CBD9F9B //NID RESOLVED
0x5C88479B:0x10FBC063 //NID RESOLVED
0x50F0C1EC:0xE6BF3960 //NID RESOLVED
0xD1FF982A:0x4848E645 //NID RESOLVED
0xD675EBB8:0xD699583C //NID RESOLVED
0x644395E2:0xA95C26C8 //NID RESOLVED
0x748CBED9:0xEE3176DD //NID RESOLVED
0xF0A26395:0x8B19C181 //NID RESOLVED
0xD8B73127:0xAD633D71 //NID RESOLVED
0x9F3AD1E9:0x15544725 //NID RESOLVED
0xCE70664B:0xB39242D0 //NID RESOLVED
0xB5DDABD3:0x207EDD42 //NID RESOLVED
0xF0CAC59E:0x143BCF21 //NID RESOLVED
0x667C1174:0x511DAF88 //NID RESOLVED
0xBA889C07:0x412D6ECC //NID RESOLVED
0x5799EE32:0x1FB2C01C //NID RESOLVED
0x53CA70EE:0xD4A6A37F //NID RESOLVED
0xEF7A7F02:0x0CD9ED84 //NID RESOLVED
0x2E0911AA:0x0D053026 //NID RESOLVED
0x2BE4807D:0x455DE851 //NID RESOLVED
0xCC1D3699:0x291CF03E //NID RESOLVED
0x04B7BD22:0x391F0224 //NID RESOLVED
0x54D9E02E:0xE9F43201 //NID RESOLVED
0x2BE2B17E:0x86597F48 //NID RESOLVED
0x5F0CC575:0x41F2E840 //NID RESOLVED
0xA6E8C1F5:0x19344DBF //NID RESOLVED
0xB49FFB9E:0x0208316C //NID RESOLVED
0x25E1F458:0xDC196103 //NID RESOLVED
0x74690AEB:0x36353292 //NID RESOLVED
0xF80F3C96:0x67DAD165 //NID RESOLVED
0xF7E46A72:0x15285C57 //NID RESOLVED
0x61EC6AB0:0xB38D9EB8 //NID RESOLVED
0xBFECA5F5:0xC19E5ABE 
@InterruptManagerForKernel
0x85F7766D:0x829AFF11 //NID RESOLVED
0x15894D0B:0xC8E4FF67 //NID RESOLVED
0xB5A15B30:0x867DEBD1 //NID RESOLVED
0x43A7BBDC:0xD01EAA3F //NID RESOLVED
0x750E2507:0xAA02AB07 //NID RESOLVED
0x494D6D2B:0x9E1C5490 //NID RESOLVED
0x55242A8B:0xCA850281 //NID RESOLVED
0xCDC86B64:0xD88DD3B4 //NID RESOLVED
0xD6878EB6:0x352FB341 //NID RESOLVED
0xF4454E44:0x978DDCCD //NID RESOLVED
0xCA04A2B9:0xD06AA711 //NID RESOLVED
0x5CB5A78B:0x12B95762 //NID RESOLVED
0x7860E0DC:0x85E7F044 //NID RESOLVED
0x36B1EF81:0xB1F5E99B //NID RESOLVED
0x0FC68A56:0x4E401A35 //NID RESOLVED
0x07E138EE:0xE4B71544 //NID RESOLVED
0xD8410DE6:0x11981C80 //NID RESOLVED
0x27BC9A45:0x298C261F //NID RESOLVED
0x0E224D66:0xFBCB2E5E //NID RESOLVED
0x35634A64:0x57AA9A29 //NID RESOLVED
0xF4D443F3:0xCBCBEF90 //NID RESOLVED
0x8B61808B:0x399FF74C //NID RESOLVED
0x8A389411:0x359F6F5C //NID RESOLVED
0xFC4374B8:0xA811BAF2 //NID RESOLVED
0x00B6B0F3:0xA6A4981E //NID RESOLVED
0x0B907DBC:0xFD524B3E //NID RESOLVED
0x7A05D976:0x6301702D //NID RESOLVED
0x7EF7500F:0x077B9BEE //NID RESOLVED
0x20804B41:0x7539543F //NID RESOLVED
0x2DC9709B:0x78D8F74D //NID RESOLVED
0xE9E652A9:0x9B434498 //NID RESOLVED
0x05E9D6C4:0x9FD93456 //NID RESOLVED
0xD63F3B31:0xD5A13B4E //NID RESOLVED
0x43CD40EF:0x1302C512 //NID RESOLVED
0xDD55A192:0x37BD0C9C //NID RESOLVED
0x72CE22E8:0x1D70F254 //NID RESOLVED
0x14C3F806:0x0F9D0289 
0xDACE3CE1:0xFD66372C 
0x114435E5:0xC86AD90B 
@sceCtrl_driver 
0x1F4011E6:0x6CB49301 //NID RESOLVED
0xDA6B76A1:0x410833B7 //NID RESOLVED
0x6A2774F3:0x855C255D //NID RESOLVED
0xB1D0E5CD:0x6574DC7C //NID RESOLVED
0x0B588501:0xD883CAF9 //NID RESOLVED
0xB7CEAED4:0xBD119FAB //NID RESOLVED
0xA7144800:0x84CEAE74 //NID RESOLVED
0x687660FA:0x390D1A49 //NID RESOLVED
0x7CA723DC:0x5B15473C //NID RESOLVED
0x5E77BC8A:0x33AB5BDB //NID RESOLVED
0x6841BE1A:0xE96A4D84 //NID RESOLVED
0xC3F607F3:0x1CDEDDBC //NID RESOLVED
0xC245B57B:0x8543BB3B //NID RESOLVED
0x02BAAD91:0x4E972A76 //NID RESOLVED
0x3A622550:0x18654FC0 //NID RESOLVED
0xC152080A:0x02DD57CF //NID RESOLVED
0x1F803938:0x9F3038AC //NID RESOLVED
0x60B81F86:0xEB5F1D7A //NID RESOLVED
0xA88E8D22:0x0D627B90 //NID RESOLVED
0x348D99D4:0x53E67075 //NID RESOLVED
0x5C56C779:0x5D8CE0B2 //NID RESOLVED
0xA68FD260:0xFAF675CB //NID RESOLVED
0x252D3A8D:0x196CF2F4 //NID RESOLVED
0xAF5960F3:0x525D27AC //NID RESOLVED
0xCC70B61E:0x5F20A0F0 //NID RESOLVED
0x3E65A0EA:0x4FAA342D //NID RESOLVED
0xE03956E9:0x08DE9E04 //NID RESOLVED
0x28E71A16:0x6CB49301 //NID RESOLVED
0x6D74BF08:0x855C255D //NID RESOLVED
0xC4AAD55F:0x18654FC0 //NID RESOLVED
0x454455AC:0x9F3038AC //NID RESOLVED
0xFF847C31:0xEB5F1D7A //NID RESOLVED
0xCB81B5DB:0x65698764 
0xE8121137:0x1D75C1D4 
0x52404C02:0x6E552572 
0x1A5393EC:0x16BB4085 
@IoFileMgrForKernel
0xA905B705:0x08CB99E3 //NID RESOLVED
0x3C54E908:0x421B8EB4 //NID RESOLVED
0xCB0A151F:0xBCC4C96F //NID RESOLVED
0x73B7671F:0xAA61C177 //NID RESOLVED
0x9B86630B:0x64ED84C9 //NID RESOLVED
0x30E8ABB3:0x13A4DEB0 //NID RESOLVED
0x411106BA:0x74482CE3 //NID RESOLVED
0x5216CE3F:0x380694BE //NID RESOLVED
0x42F954D4:0xBF50BAE8 //NID RESOLVED
0xBD17474F:0x804DFCE6 //NID RESOLVED
0xFFDD5B84:0xB0C2C948 
0xF9FC5881:0xD18CF368 
@LoadExecForKernel
0xA3D5E142:0x5AA1A6D2 //NID RESOLVED
0x4AC57943:0xE9B45481 //NID RESOLVED
0x62A27008:0x8CE2AB86 //NID RESOLVED
0xD3D13800:0x106ABDB8 //NID RESOLVED
0x1B97BDB3:0x45C6125B //NID RESOLVED
0x821BE114:0x179D905A //NID RESOLVED
0x7B7C47EF:0xDEA6A7FC //NID RESOLVED
0x6D8D3A3A:0x4A9446E7 //NID RESOLVED
0x015DA036:0x818E14A4 //NID RESOLVED
0x4F41E75E:0x905FDDB6 //NID RESOLVED
0x31DF42BF:0x7286CF0B //NID RESOLVED
0x28D0D249:0x3D805DE6 //NID RESOLVED
0x70901231:0xBAEB4B89 //NID RESOLVED
0x061D9514:0x8EF38192 //NID RESOLVED
0xB7AB08DA:0x6C00E642 //NID RESOLVED
0x6D302D3D:0xFCD765C9 //NID RESOLVED
0x15EB8575:0x54303E86 //NID RESOLVED
0x659188E1:0xEF9C9627 //NID RESOLVED
0x11412288:0x168D8865 //NID RESOLVED
0xD9739B89:0x7C0ADE1F //NID RESOLVED
0x26D89F43:0x10E94E41 
0x3FB452EA:0x9828D1D9 
0xC79CF921:0x7A206082 
0xAE41E3F9:0xFE8E1A30 
0xE486376A:0xE35220AC 
0xC8532EAA:0xDDED4433 
0x41D9398E:0xCEFE1100 
0x88F03BAF:0xD35D6403 
0xF55FB823:0x2752CD13 
0xCE2C378B:0xC42F65FA 
0xAA8A929C:0x78912B54 
0x9584019D:0x778E333F 
0x691CF448:0x0DBC783B 
0x4259F89F:0x59A2F67F 
0x0525C284:0x9D39758A 
@sceReg_driver
0x98279CF1:0xAEBFD786 //NID RESOLVED
0x9B25EDF1:0x746E6D70 //NID RESOLVED
0x92E41280:0x7F17123E //NID RESOLVED
0xFA8A5739:0xA349B88E //NID RESOLVED
0xDEDA92BF:0x079810CF //NID RESOLVED
0x1D8A762E:0xBA1A6A86 //NID RESOLVED
0x4CA16893:0x3F8C163C //NID RESOLVED
0xBE8C1263:0xC1881EB5 //NID RESOLVED
0x835ECE6F:0x44242CEB //NID RESOLVED
0x57641A81:0x79C81DCA //NID RESOLVED
0x17768E14:0x5476A667 //NID RESOLVED
0xD4475AA8:0xA81437D0 //NID RESOLVED
0xC5768D02:0x7149BA4A //NID RESOLVED
0x28A8E98A:0x693B0D7F //NID RESOLVED
0x30BE0259:0x23B685FA //NID RESOLVED
0x3615BC87:0xECE409B6 //NID RESOLVED
0x2C0DB9DD:0x38BC9D01 //NID RESOLVED
0x2D211135:0x4E285673 //NID RESOLVED
0x39461B4D:0xAEF5B913 //NID RESOLVED
0x0D69BF40:0x55C9A620 //NID RESOLVED
0x0CAE832B:0xA1671F90 //NID RESOLVED
@sceImpose_driver
0x9C8C6C81:0x2462EFE4 //NID RESOLVED
0x36AA6E91:0xBF34567B //NID RESOLVED
0x24FD7BCF:0xD33D92AF //NID RESOLVED
0x8C943191:0xEBC850AC //NID RESOLVED
0xC7E36CC7:0x8AEDAD79 //NID RESOLVED
0x5595A71A:0x5EF5BAF2 //NID RESOLVED
0x0F341BE4:0xE8004C90 //NID RESOLVED
0x72189C48:0x6513E3B5 //NID RESOLVED
0xE0887BC8:0x454CB346 //NID RESOLVED
0x381BD9E7:0x90B3DC7F //NID RESOLVED
0x9DBCE0C4:0x08362264 //NID RESOLVED
0x967F6D4A:0x8C6BEAF3 //NID RESOLVED
0x8F6E3518:0xB658F454 //NID RESOLVED
0xFF1A2F07:0x418EF9D9 //NID RESOLVED
0x7084E72C:0x6C41D4D6 //NID RESOLVED
0x1B6E3400:0x6886A3B9 //NID RESOLVED
0xB415FC59:0x44F17A7A //NID RESOLVED
0x531C9778:0x4C4DF719 //NID RESOLVED
0xFCD44963:0x72524BDB //NID RESOLVED
0x116CFF64:0x4459932F //NID RESOLVED
0x116DDED6:0x027F21C6 //NID RESOLVED
0xBDBC42A6:0xAF2CB30B //NID RESOLVED
0x1AEED8FE:0x375A2913 //NID RESOLVED
0x86924032:0x6DDBA601 //NID RESOLVED
0x8F1AC24D:0x3FE74F52 
0x0B680162:0x6902A527 
@sceDisplay_driver
0x63E22A26:0xDF998667 //NID RESOLVED
0x5B5AEFAD:0xCCEEA6BB //NID RESOLVED
0x9E3C6DC6:0x89FD2128 //NID RESOLVED
0x31C4BAA8:0x3A5621E0 //NID RESOLVED
0x7ED59BC4:0x73CA5F45 //NID RESOLVED
0xBF79F646:0xE1B2D7D3 //NID RESOLVED
0xDBA6C4C4:0x0D3248C1 //NID RESOLVED
0xA83EF139:0x575B0CC5 //NID RESOLVED
0x210EAB3A:0x7A3E7402 //NID RESOLVED
0x773DD3A3:0xA87F508D //NID RESOLVED
0x4D4E10EC:0x59456A3E //NID RESOLVED
0x69B53541:0x2F701A85 //NID RESOLVED
0x66961521:0x0163AE99 //NID RESOLVED
0x21038913:0x4E6526A4 //NID RESOLVED
0x92C8F8B7:0x823F72B2 //NID RESOLVED
0xA544C486:0x3DABE438 //NID RESOLVED
0xF5EEEFEF:0x01F6B0D5 //NID RESOLVED
0x9C6EAAD7:0x21F912F4 //NID RESOLVED
0xB4F378FA:0x2D859B86 //NID RESOLVED
0xAC14F1FF:0x45FC50F8 //NID RESOLVED
0xEEDA2E54:0x08A10838 //NID RESOLVED
0x289D82FE:0x37533141 //NID RESOLVED
0x432D133F:0xA70E2B3C //NID RESOLVED
0x681EE6A7:0xD4EF6579 //NID RESOLVED
0x36CDFADE:0xB6C8FD75 //NID RESOLVED
0x8EB9EC49:0xA10EABE8 //NID RESOLVED
0x984C27E7:0xC30D327D //NID RESOLVED
0x46F186C3:0x3E4B1B28 //NID RESOLVED
0x946155FD:0xA70E2B3C //NID RESOLVED
0x32B67781:0xD4EF6579 //NID RESOLVED
0x820C6038:0xCCEEA6BB //NID RESOLVED
0x776ADFDB:0x89FD2128 //NID RESOLVED
0x1CB8CB47:0x3A5621E0 //NID RESOLVED
0x13AA96B7:0x0D3248C1 //NID RESOLVED
0xB685BA36:0xC30D327D //NID RESOLVED
0x643F3841:0xDF998667 //NID RESOLVED
0x4AB7497F:0x37533141 //NID RESOLVED
0xE56B11BA:0x08A10838 //NID RESOLVED
0xE8466BC2:0x21F912F4 //NID RESOLVED
0xAB18818E:0xE407E049 
0xA979F8FB:0xA7427DE0 
0x1EB7CD32:0x97348402 
0xF4B7B531:0x8930B3A9 
@scePower_driver
0x04B7766E:0x8BA12BAF //NID RESOLVED
0xDFA8BAF8:0xE51B6170 //NID RESOLVED
0xA9D22232:0x224153D1 //NID RESOLVED
0xBAFA3DF0:0x86A42EB0 //NID RESOLVED
0x442BFBAC:0x57F6311D //NID RESOLVED
0xD66EF08D:0xA2E9E73F //NID RESOLVED
0x6D2CA84B:0x6121DF53 //NID RESOLVED
0x23BB0A60:0xBB9E6960 //NID RESOLVED
0x23C31FFE:0x503F08C9 //NID RESOLVED
0xFA97A599:0x37DB9C37 //NID RESOLVED
0xB3EDD801:0x88D4244D //NID RESOLVED
0x79DB9421:0x670C0E0A //NID RESOLVED
0x2B7C7CF4:0x334539BA //NID RESOLVED
0xAC32C9CC:0x062CFDDC //NID RESOLVED
0x2875994B:0x12D8AD47 //NID RESOLVED
0x0442D852:0xF50DA013 //NID RESOLVED
0x7F30B3B1:0x25C15BDD //NID RESOLVED
0x972CE941:0x6751719C //NID RESOLVED
0x843FBF43:0x473DE4F3 //NID RESOLVED
0xB8D7B3FB:0xBEA1E507 //NID RESOLVED
0xE0B7A95D:0x0A9449CA //NID RESOLVED
0x166922EC:0xADC51F12 //NID RESOLVED
0xDD3D4DAC:0x6F81E302 //NID RESOLVED
0x733F973B:0xE11A1999 //NID RESOLVED
0x90285886:0xF3A08560 //NID RESOLVED
0xB4432BC8:0x481F5556 //NID RESOLVED
0x8EFB3FA2:0xC8749D1A //NID RESOLVED
0x862AE1A6:0xC3EC1F7D //NID RESOLVED
0x27F3292C:0x7810C65D //NID RESOLVED
0xD3075926:0xDE18E7C0 //NID RESOLVED
0x23436A4A:0x552DA46D //NID RESOLVED
0xC71EE866:0xA7308D7A //NID RESOLVED
0x28E12023:0xC8324682 //NID RESOLVED
0xCB49F5CE:0x78B3BB42 //NID RESOLVED
0xD7B9C925:0x498A2F35 //NID RESOLVED
0x2B51FE2F:0x2C6EBF4B //NID RESOLVED
0xD6D016EF:0xBFC88E63 //NID RESOLVED
0x0CD21B1F:0x8B7A117B //NID RESOLVED
0x165CE085:0xF39FA6C9 //NID RESOLVED
0xCA3D34C1:0x4274C154 //NID RESOLVED
0x7FA406DD:0x5B459B92 //NID RESOLVED
0x0074EF9B:0x5B8EBCD9 //NID RESOLVED
0xF535D928:0x34C67E02 //NID RESOLVED
0xC23AC778:0x50073719 //NID RESOLVED
0x57A098B4:0xA2D82221 //NID RESOLVED
0x55D2D789:0xD0312080 //NID RESOLVED
0xDD27F119:0xBB702691 //NID RESOLVED
0x75F91FE4:0x753F1F67 //NID RESOLVED
0x06C83A4F:0x13FC1A60 //NID RESOLVED
0x4E759486:0xEB675D9B //NID RESOLVED
0x53C1255D:0x77342CBF //NID RESOLVED
0x8762BCE6:0x82B25808 //NID RESOLVED
0xCAE2A4CA:0x8AEB1037 //NID RESOLVED
0xD24E6BEB:0x6BCB6389 //NID RESOLVED
0x35B7662E:0xE856A6C6 //NID RESOLVED
0xF9B4DEA1:0x3BB93FFE //NID RESOLVED
0xF06B96D4:0x58F9A7C3 //NID RESOLVED
0xB1A52C83:0xB7C54B9A //NID RESOLVED
0x478FE6F5:0x9F53A71F //NID RESOLVED
0xBD681969:0x9F53A71F //NID RESOLVED
0x9BADB3EB:0xCC998F67 //NID RESOLVED
0x34F9C463:0xDCC6E49B //NID RESOLVED
0xEA382A27:0x735DFD94 //NID RESOLVED
0x3234844A:0x8C306FBC //NID RESOLVED
0x94F5A53F:0x08EC482C //NID RESOLVED
0xE8E4E204:0xBE3AEA7F //NID RESOLVED
0xB999184C:0x00B50FFA //NID RESOLVED
0x87440F5E:0xF8C9FAF5 //NID RESOLVED
0x0AFD0D8B:0x81DCA5A5 //NID RESOLVED
0x1E490401:0xAB842949 //NID RESOLVED
0xC3C33306:0x8A861DB4 //NID RESOLVED
0xFD18A0FF:0x266A2BFC //NID RESOLVED
0x2085D15D:0x2CBFA597 //NID RESOLVED
0x483CE86B:0x4A1118E1 //NID RESOLVED
0xA4D02055:0x835ADE3F //NID RESOLVED
0x3951AF53:0x20EC212D //NID RESOLVED
0xEFD3C963:0x6C4F9920 //NID RESOLVED
0xEDC13FE5:0x3C0B1828 //NID RESOLVED
0x78A1A796:0xF36E1F37 //NID RESOLVED
0x9B1A9C5F:0x334539BA //NID RESOLVED
0xE65F00BD:0xF50DA013 //NID RESOLVED
0x9C40E184:0x6C4F9920 //NID RESOLVED
0x1688935C:0x9F53A71F //NID RESOLVED
0xFEE03A2F:0xFDB5BFE9 //NID RESOLVED
0xB84F2A2F:0xD3D471D7 
@sceDdr_driver
0x286E1372:0x6835D115 //NID RESOLVED
0x6078F911:0x1970E996 //NID RESOLVED
0xB5694ECD:0x52C31D02 //NID RESOLVED
0x5B5831E5:0x4082BC9E //NID RESOLVED
0xF23B7983:0x16AAFDCA //NID RESOLVED
0x655A9AB0:0xA786CD84 //NID RESOLVED
0x6955346C:0xB358CAF5 //NID RESOLVED
0x0DC43DE4:0xFDC569B7 //NID RESOLVED
0xD7C6C313:0x64CF91A8 //NID RESOLVED
0x91CD8F94:0x8AB4AC05 //NID RESOLVED
0x888129E8:0xE8D58A1A //NID RESOLVED
0x7251F5AB:0x6627B052 //NID RESOLVED
0x4CE55E76:0x2E025581 //NID RESOLVED
@KDebugForKernel
0xA2983280:0xD0850178 //NID RESOLVED
0x2FF4E9F9:0xCAEA73D0 //NID RESOLVED
0x5282DD5E:0x97981F3C //NID RESOLVED
0xEE75658D:0x294FEFE7 //NID RESOLVED
0x428A8DA3:0x61B6A1CE //NID RESOLVED
0x72E6B3B8:0x830F4DC8 //NID RESOLVED
0xA216AE06:0x92DA9CEF //NID RESOLVED
0x333DCEC7:0x3C46AF7A //NID RESOLVED
0x9B868276:0x3D5041EC //NID RESOLVED
0x8B041DFB:0x77DEE495 //NID RESOLVED
0xE7A3874D:0xA23669EF //NID RESOLVED
0xAFB8FC80:0xD888F028 //NID RESOLVED
0x23906FB2:0xE7480386 //NID RESOLVED
0x9F8703E4:0xC18084F9 //NID RESOLVED
0xFFD2F2B9:0x3B795296 //NID RESOLVED
0xE146606D:0xAAC71263 //NID RESOLVED
0x7CEB2C09:0x5BF5A00B //NID RESOLVED
0x5CE9838B:0x60E0291C //NID RESOLVED
0x66253C4E:0x38D77D9A //NID RESOLVED
0xDBB5597F:0x3BB437F5 //NID RESOLVED
0xE6554FDA:0xED1ECA9D //NID RESOLVED
0xB9C643C9:0x6382FD26 //NID RESOLVED
0x7D1C74F0:0x0EF3FBF4 //NID RESOLVED
0xA126F497:0xDFB64D25 //NID RESOLVED
0xB7251823:0x9975EF98 //NID RESOLVED
0x24C32559:0xC05553F6 //NID RESOLVED
0x295865B1:0x0EF3FBF4
@ExceptionManagerForKernel
0x5A837AD4:0x7D995AE8 //NID RESOLVED
0x565C0B0E:0x46EA27C3 //NID RESOLVED
0x1AA6CFFA:0x51763A88 //NID RESOLVED
0x291FF031:0x409632B8 //NID RESOLVED
0x3FB264FC:0x06372550 //NID RESOLVED
0xDF83875E:0xD061B94E //NID RESOLVED
0xFC26C354:0x6C87F398 //NID RESOLVED
0x0587301B:0x5D2DD958
@memlmd
0x323366CA:0x3F2AC9C6 //NID RESOLVED
0x1570BAB4:0xC071E9CA //NID RESOLVED
0x7CF1CD3E:0xE42AFE2E //NID RESOLVED
0xCE3EEFD0:0xD56F8AEC 
0x03A71DAD:0x97DA82BC 
0xC9500FA3:0xFA661321 
0x2B0DE365:0x4A8C2F40 
0xEB740EA3:0xE758B379 
@sceMesgLed_driver 
0xDFF0F308:0x11B29654 //NID RESOLVED
0x55999280:0x4F3A947F 
0x398D48EA:0x17784DA2 
0xFCA75F43:0xBF942D5B 
0xF70CD5D4:0x31CC07BD 
0x4ABDF843:0x7B84DA2D 
0x27E6D0A1:0x2C4C5FFC 
0x095F3912:0x58394A54 
0xDFFA59BD:0x0CD099AC 
0x843CA1CB:0x47AF0575 
0x90FF5E0E:0x8C6F53BB 
0xC51DB450:0x8423BC2D 
0xB416C7E8:0x804BDE3E 
0xBACF293D:0xDD784C40 
0x1BFA31F8:0x03AF2FE3 
0x3186BF38:0x8B0F498B 
@sceClockgen_driver
0x4EB657D5:0xA02BB1D3 //NID RESOLVED
0xD37944FB:0x57163E55 
0x35A667A6:0x2F81A03C 
0x4498E7E1:0xBA7FAF37 
0x18512E9D:0x2186979D 
0x90DC89B4:0x59E7DFE6 
0x3C3D1A46:0xEB10F31F 
@sceCodec_driver
0x20C61103:0xD26B6CCE //NID RESOLVED
0x0BA1AF49:0xD6A2D0D6 
0x8E11D696:0x55CD9281 
0x70C56A98:0xF071BF60 
0x26DF5EF9:0x431C0C8E 
0xF9FB275A:0x9681738F 
0xB0E2AB56:0xB0141A1B 
0x59A04473:0xE4D7F914 
0x794EE731:0xB2EF6B19 
@sceSysreg_driver
0xC29D614E:0xDD81E650 //NID RESOLVED
0xDC6139A4:0x2B987503 //NID RESOLVED
0xDE59DACB:0xB70793D7 //NID RESOLVED
0x2DB0EB28:0xE2606FCB //NID RESOLVED
0x26283A6F:0x2DDD6900 //NID RESOLVED
0xA374195E:0x5C431485 //NID RESOLVED
0xD20581EA:0x0C207E1B //NID RESOLVED
0x7558064A:0x381A7DEF //NID RESOLVED
0x9BB70D34:0x86FFE348 //NID RESOLVED
0xFD6C562B:0xC244D673 //NID RESOLVED
0xCD4FB614:0x589C265C //NID RESOLVED
0x69EECBE5:0x39D70582 //NID RESOLVED
0xF5B80837:0x1DDD5251 //NID RESOLVED
0x8075303F:0xD01D14CA //NID RESOLVED
0x00C2628E:0xA5ADA1B9 //NID RESOLVED
0xEC4BF81F:0xB457532C //NID RESOLVED
0x8A7F9EB4:0x519942D9 //NID RESOLVED
0xC32F2491:0x0776E51D //NID RESOLVED
0xA23BC2C4:0xFAC5A294 //NID RESOLVED
0xF5EA8570:0x5084432C //NID RESOLVED
0x3E961C02:0xA898A421 //NID RESOLVED
0xACFA3764:0x5CB2DF0E //NID RESOLVED
0x44F6CDA7:0xD74D9041 //NID RESOLVED
0x158AD4FC:0x64FA9D42 //NID RESOLVED
0x4D4CE2B8:0x78C77639 //NID RESOLVED
0x789BD609:0x780DA912 //NID RESOLVED
0x391CE1C0:0x096A438F //NID RESOLVED
0x82D35024:0x460B35AD //NID RESOLVED
0xAF904657:0x90DD91C7 //NID RESOLVED
0x438AECE9:0x296B0011 //NID RESOLVED
0x4F5AFBBE:0x8C722FED //NID RESOLVED
0x845DD1A6:0xF2123675 //NID RESOLVED
0x3E216017:0x5A2F2873 //NID RESOLVED
0xBFBABB63:0xB1654EF2 //NID RESOLVED
0x4716E71E:0xAAF010B3 //NID RESOLVED
0x826430C0:0xE179B80C //NID RESOLVED
0x7CC6CBFD:0xECFCCC18 //NID RESOLVED
0xEE6B9411:0x296DC1E1 //NID RESOLVED
0x63B9EB65:0x4B9663E0 //NID RESOLVED
0xE1AA9788:0x64F213C0 //NID RESOLVED
0xAA63C8BD:0x789597AB //NID RESOLVED
0x054AC8C6:0x5B23A351 //NID RESOLVED
0xE45BED6A:0xA7050245 //NID RESOLVED
0x681B35C4:0x1BF3B5F7 //NID RESOLVED
0xE321F41A:0x16B660BF //NID RESOLVED
0x4D2FFC60:0x1B5A6BF5 //NID RESOLVED
0x6B01D71B:0x818819C6 //NID RESOLVED
0xFC186A83:0x68F37D82 //NID RESOLVED
0xB59DB832:0x89CDC923 //NID RESOLVED
0x9155812C:0x2A19E0D8 //NID RESOLVED
0xDA4FCA1D:0x10735602 //NID RESOLVED
0x228A73E1:0xC022F8DD //NID RESOLVED
0x31154490:0x9BBB19AE //NID RESOLVED
0x8E2D835D:0x3CF9F018 //NID RESOLVED
0xE8533DCA:0x69CC777F //NID RESOLVED
0xF6D83AD0:0x24FE340D //NID RESOLVED
0xA9CD1C1F:0x8E9E76AE //NID RESOLVED
0x2F216F38:0x88DB6B25 //NID RESOLVED
0xE3AECFFA:0xF79E0DF3 //NID RESOLVED
0x3BBD0C0C:0x495BBD59 //NID RESOLVED
0xC1DA05D2:0x035BD7AA //NID RESOLVED
0xDE170397:0x23EC68E8 //NID RESOLVED
0x38EC3281:0x81856987 //NID RESOLVED
0xBC68D9B6:0x5E118FA3 //NID RESOLVED
0xA3C8E075:0x16859359 //NID RESOLVED
0x79338EA3:0x5972F148 //NID RESOLVED
0xCADB92AA:0xFEC035A0 //NID RESOLVED
0xD74F1D48:0xBA3E983B //NID RESOLVED
0x18172C6A:0x767D0E1A //NID RESOLVED
0xBB26CF1F:0xD1999F94 //NID RESOLVED
0x8E2FB536:0x7CE56D54 //NID RESOLVED
0xF844DDF3:0x9984A972 //NID RESOLVED
0x29A119A1:0x3835F9D9 //NID RESOLVED
0x8B95C17F:0x021D76FC //NID RESOLVED
0xCCF911C0:0x4554E89E //NID RESOLVED
0xB627582E:0xE7748A19 //NID RESOLVED
0x1E9C3607:0x18036C7C //NID RESOLVED
0x55B18B84:0xA07C29A9 //NID RESOLVED
0x2112E686:0x47E9B7BC //NID RESOLVED
0x7B9E9A53:0x3440E941 //NID RESOLVED
0x7BDF0556:0x0AE7EB33 //NID RESOLVED
0x8D0FED1E:0x2841F98A //NID RESOLVED
0xA46E9CA8:0xBF0A535F //NID RESOLVED
0x633595F2:0x39BAA610 //NID RESOLVED
0x32471457:0xEAD4AA62 //NID RESOLVED
0x692F31FF:0xFE2A72C1 //NID RESOLVED
0xFFEB6E00:0xC86847C6 //NID RESOLVED
0x87C2BA20:0x55B2A1F1 //NID RESOLVED
0xD43E98F6:0x88A2F907 //NID RESOLVED
0xBF91FBDA:0x94DE6FAA //NID RESOLVED
0x36A75390:0xA7833991 //NID RESOLVED
0x61BFF85F:0x0344F228 //NID RESOLVED
0x9FC87ED4:0x45596E3F //NID RESOLVED
0x8BE2D520:0x0CFD5A8A //NID RESOLVED
0xB08A4E85:0x4978EA7F //NID RESOLVED
0xA41929DA:0xE160C581 //NID RESOLVED
0xE88B77ED:0xCD852877 //NID RESOLVED
0x312F9419:0x40FD846E //NID RESOLVED
0x844AF6BD:0x7DA92F37 //NID RESOLVED
0xB21B6CBF:0xA810DD49 //NID RESOLVED
0xB4560C45:0x5DB6670C //NID RESOLVED
0x1969E840:0xDAD55B3D //NID RESOLVED
0x1D382514:0xED38F76C //NID RESOLVED
0x03340297:0x325B9873 //NID RESOLVED
0x9100B4E5:0x3A98CABB //NID RESOLVED
0x1E18EA43:0x39B115A7 //NID RESOLVED
0x833E6FB1:0x7D40269F //NID RESOLVED
0x8CE2F97A:0x88BB9B70 //NID RESOLVED
0x0A83FC7B:0x9E80B4E2 //NID RESOLVED
0x3EA188AD:0xDAEB80C9 //NID RESOLVED
0x4EE8E2C8:0x2ECAA478 //NID RESOLVED
0x083F56E2:0x0CBB0657 //NID RESOLVED
0x7C5B543C:0x8B0E4451 //NID RESOLVED
0x5664F8B5:0xF22C6FBB //NID RESOLVED
0x44704E1D:0x7EC19A9A //NID RESOLVED
0x584AD989:0xE392C8AD //NID RESOLVED
0x377F035F:0xAF32F771 //NID RESOLVED
0x0EA487FA:0xE0B6CBFF //NID RESOLVED
0xF4811E00:0xC0D9A9E6 //NID RESOLVED
0x7234EA80:0x6C4D9F5A //NID RESOLVED
0xCD0F6715:0xAA8C6DEE //NID RESOLVED
0xF3443B9A:0x2D5A9EE1 //NID RESOLVED
0x53A6838B:0xE86442A0 //NID RESOLVED
0xBB3623DF:0x1FF17642 //NID RESOLVED
0xDCA57573:0x6C8249A5 //NID RESOLVED
0x25673620:0x06E4C1A1 //NID RESOLVED
0xEE8760C6:0xB31774D7 //NID RESOLVED
0xAB3185FD:0x2AFB7135 //NID RESOLVED
0x136E8F5A:0x99C319F7 //NID RESOLVED
0xA9997109:0xB70793D7 //NID RESOLVED
0x76220E94:0xE2606FCB //NID RESOLVED
0x3199CF1C:0xD74D9041 //NID RESOLVED
0x07881A0B:0x64FA9D42 //NID RESOLVED
@sceRtc_driver
0x9763C138:0x6E69ED54 //NID RESOLVED
0x7D1FBED3:0x54B9C589 //NID RESOLVED
0xC2DDBEB5:0x642544CD //NID RESOLVED
0x81FCDA34:0xBEBE31B8 //NID RESOLVED
0xFB3B18CD:0x12DDA3D7 //NID RESOLVED
0x203CEB0D:0xA01B48AC //NID RESOLVED
0x62685E98:0x65725896 //NID RESOLVED
0x759937C5:0xF3B8D574 //NID RESOLVED
0x6A676D2D:0xAB8F477C //NID RESOLVED
0xE7C27D1B:0x0287B1C2 //NID RESOLVED
0x34885E0D:0xFF530D9F //NID RESOLVED
0x779242A2:0x9FAADB5A //NID RESOLVED
0x42307A17:0x2894B167 //NID RESOLVED
0x05EF322C:0x47E66184 //NID RESOLVED
0x36075567:0xDA941BC2 //NID RESOLVED
0xCF561893:0x9C7EC49F //NID RESOLVED
0xE1C93E47:0x0C8E0D5C //NID RESOLVED
0x27C4594C:0xD2CCB1A6 //NID RESOLVED
0x7ED29E40:0x99037763 //NID RESOLVED
0xDBF74F1B:0x383685EA //NID RESOLVED
0x42842C77:0xE25D31B3 //NID RESOLVED
0x57726BC1:0x1D887B2E //NID RESOLVED
0xF006F264:0xC34F73EB //NID RESOLVED
0x7ACE4C04:0xE8E3D9CB //NID RESOLVED
0x1909C99B:0xDACE3710 //NID RESOLVED
0x3A807CC8:0x6D49A806 //NID RESOLVED
0x26D25A5D:0x5EF1D882 //NID RESOLVED
0x26D7A24A:0x994BA17E //NID RESOLVED
0xE51B4B7A:0x405A9884 //NID RESOLVED
0xCF3A2CA8:0x0C47B23C //NID RESOLVED
0x9ED0AE87:0x797B5418 //NID RESOLVED
0xDFBC5F16:0x2A7A5D67 //NID RESOLVED
0x28E1E988:0x87EA3D9F //NID RESOLVED
0xC663B3B9:0x2CF257D1 //NID RESOLVED
0x0498FB3C:0x8FFE941C //NID RESOLVED
0x7DE6711B:0x23A51249 //NID RESOLVED
0x27F98543:0x1F0BED41 //NID RESOLVED
0xF0B5571C:0xD0AEDBD2 //NID RESOLVED
0xD24DF719:0xD6335482 //NID RESOLVED
0xC499AF2F:0x0686868F //NID RESOLVED
0xE6605BCA:0x4A2C0756 //NID RESOLVED
0x30A88CBB:0xB75568DD 
@sceHprm_driver
0xC7154136:0x2717E848 //NID RESOLVED
0xFD7DE6CD:0x03145C9F //NID RESOLVED
0x8EC787E0:0x2BE94442 //NID RESOLVED
0xBAD0828E:0x73587D56 //NID RESOLVED
0x4D1E622C:0x47C9A7FF //NID RESOLVED
0x2BCEC83E:0x0611587F //NID RESOLVED
0x40D2F9F0:0xA3A87975 //NID RESOLVED
0x9C1D9ADB:0x38FB84B5 //NID RESOLVED
0xB6B6786B:0x183E2F8D //NID RESOLVED
0x7B038374:0x83B75776 //NID RESOLVED
0x21E8AFD5:0xB866E93F //NID RESOLVED
0x6BC7BEE9:0xC69CB776 //NID RESOLVED
0xC0FE0FAD:0x748FC3C8 //NID RESOLVED
0x7B1A14B8:0xA971659D //NID RESOLVED
0xF04591FA:0x4A1FDBBE //NID RESOLVED
0x971AE8FB:0xA4396E9B //NID RESOLVED
0x71B5FB67:0xB05CD4A2 //NID RESOLVED
0x7E69EDA4:0x8F2559DE //NID RESOLVED
0x208DB1BD:0x0682085A //NID RESOLVED
0x219C58F1:0x9B916290 //NID RESOLVED
0xC1777D84:0xADE4B1F4 //NID RESOLVED
0x1528D408:0xADE4B1F4 //NID RESOLVED
0xD22913DB:0x4C1F35A1 //NID RESOLVED
0x133DE8FA:0xF0A5DC5E //NID RESOLVED
0x0588405B:0x858FCA80 
@sceGpio_driver
0xCA8BE2EA:0x8137599B //NID RESOLVED
0x37C8DADC:0x7E4F5CAD //NID RESOLVED
0xF856CE46:0xF2A11746 //NID RESOLVED
0x95135905:0x7BB3FD6B //NID RESOLVED
0x785206CD:0xDDAFD05C //NID RESOLVED
0x31F34AE6:0xFCC28150 //NID RESOLVED
0xBE77D1D0:0x77A979FB //NID RESOLVED
0xC6928224:0x6446C968 //NID RESOLVED
0x6B38B826:0x127C8C8D //NID RESOLVED
0x5691CEFA:0x50540953 //NID RESOLVED
0x2CDC8EDC:0x3775BB6E //NID RESOLVED
@sceGe_driver
0xE0D68148:0xEF1B48C6 //NID RESOLVED
0x71FCD1D6:0x632DD78F //NID RESOLVED
0x9F2C2948:0xB85BCB96 //NID RESOLVED
0xB415364D:0xE0E43511 //NID RESOLVED
0x51C8BB60:0xCD3DA558 //NID RESOLVED
0xDC93CFEF:0xED34CF92 //NID RESOLVED
0x51D44C58:0x1DA54C86 //NID RESOLVED
0x57C8945B:0x7FDFE7D4 //NID RESOLVED
0x5A0103E6:0x8083DAFC //NID RESOLVED
0x438A385A:0x04B53579 //NID RESOLVED
0x0BF608FB:0xB4E22A53 //NID RESOLVED
0x9DA4A75F:0x86551EBA //NID RESOLVED
0x8F185DF7:0xBDA9D2F5 //NID RESOLVED
0x114E1745:0x6338386D //NID RESOLVED
0x5BAA5439:0x2444EC4D //NID RESOLVED
0xB77905EA:0xD8E03A2B //NID RESOLVED
0x5FB86AB0:0x0BC8BCED //NID RESOLVED
0x03444EB4:0xFEEC36F7 //NID RESOLVED
0xB287BD61:0xF490E8A0 //NID RESOLVED
0xB448EC0D:0x34A061D2 //NID RESOLVED
0x4C06E472:0xA462A747 //NID RESOLVED
0xA4FC06A4:0x1709686F //NID RESOLVED
0xAEC21518:0x39F15186 //NID RESOLVED
0x7B481502:0x4508BF79 //NID RESOLVED
0x9ACFF59D:0x20EF3AC2 //NID RESOLVED
0x67B01D8E:0x4C89C4A7 //NID RESOLVED
0xE66CB92E:0x97CA08A2 //NID RESOLVED
0xAB49E76A:0xD8A53104 //NID RESOLVED
0x1C0D95A6:0xBB302D0B //NID RESOLVED
0x05DB22CE:0x2994C7F0 //NID RESOLVED
0xBAD6E1CA:0xBF3A8761 //NID RESOLVED
0xE47E40E4:0x40F72852 //NID RESOLVED
0x1F6752AD:0x670F15ED //NID RESOLVED
0xC576E897:0x35AF4E6C //NID RESOLVED
@sceSyscon_driver
0x5FF1D610:0x78E0EEAC //NID RESOLVED
0xE00BFC9E:0x3029639F //NID RESOLVED
0xC8D97773:0x61A25BB7 //NID RESOLVED
0x64FA0B22:0x716FEABC //NID RESOLVED
0x58531E69:0x76D41EEF //NID RESOLVED
0xAD555CE5:0x6552B9B1 //NID RESOLVED
0xF281805D:0x77C8C60A //NID RESOLVED
0xA068B3D0:0x1E9F1794 //NID RESOLVED
0xE540E532:0x6AB36FE6 //NID RESOLVED
0x4AB44BFC:0x9C99FD01 //NID RESOLVED
0xBBFB70C0:0xCFFF5E1A //NID RESOLVED
0x805180D1:0x8F53A3F8 //NID RESOLVED
0xA8E34316:0x3AE06081 //NID RESOLVED
0x53072985:0xF1D75F96 //NID RESOLVED
0xF9193EC3:0x3FD3C02D //NID RESOLVED
0x88FDB279:0xBB0CB029 //NID RESOLVED
0xBAAECDF8:0xB1F1AA4F //NID RESOLVED
0x7479DB05:0xC15ECA50 //NID RESOLVED
0x6848D817:0xCF14E5F9 //NID RESOLVED
0x3FE87D0E:0xA59F82EB //NID RESOLVED
0xFC32141A:0x035EA6E4 //NID RESOLVED
0xF775BC34:0x8278F12B //NID RESOLVED
0xA9AEF39F:0xE5E76E20 //NID RESOLVED
0x25F47F96:0x085A0515 //NID RESOLVED
0xC7634A7A:0x143A8E3B //NID RESOLVED
0x7A805EE4:0x5E866CFD //NID RESOLVED
0x6C911742:0x5E4EED46 //NID RESOLVED
0xE9FF8226:0xC7661272 //NID RESOLVED
0x882F0AAB:0xB103FA82 //NID RESOLVED
0x00E7B6C2:0x4F4191D2 //NID RESOLVED
0x44439604:0xD0BD786F //NID RESOLVED
0xBE27FE66:0x60EA8627 //NID RESOLVED
0xE5E35721:0xC4931159 //NID RESOLVED
0x01677F91:0x80ADDE16 //NID RESOLVED
0x09721F7F:0x9805EFA4 //NID RESOLVED
0x2B9E6A06:0xB9F72312 //NID RESOLVED
0x99BBB24C:0x62EAAA17 //NID RESOLVED
0xF0ED3255:0x741110C5 //NID RESOLVED
0x3987FEA3:0x8BED6A5F //NID RESOLVED
0xC5075828:0x95B64473 //NID RESOLVED
0x3C6DB1C5:0xD501125F //NID RESOLVED
0xB2558E37:0x17B0AC09 //NID RESOLVED
0x9478F399:0x62686235 //NID RESOLVED
0x6A53F3F8:0xCC0AACB9 //NID RESOLVED
0xFA4C4518:0xD62BB5B7 //NID RESOLVED
0x70C10E61:0x89468062 //NID RESOLVED
0x8BDEBB1E:0xD84B0A9A //NID RESOLVED
0x373EC933:0xB72CEA5A //NID RESOLVED
0x82861DE2:0xB039548D //NID RESOLVED
0x876CA580:0x53181AA1 //NID RESOLVED
0x71135D7D:0x0FDDB500 //NID RESOLVED
0x7CBD4522:0xEA23A8CB //NID RESOLVED
0x284FE366:0xD1241F0E //NID RESOLVED
0x75025299:0x05FA7FA3 //NID RESOLVED
0xB5105D51:0x3182D1D3 //NID RESOLVED
0xD5340103:0xE3D4ACBA //NID RESOLVED
0xB71B98A8:0xDAFF12A6 //NID RESOLVED
0x87671B18:0x7BD57A97 //NID RESOLVED
0x75D22BF8:0xF746CC17 //NID RESOLVED
0x4C539345:0x12AF1EAF //NID RESOLVED
0x4C0EE2FA:0xC203B3D1 //NID RESOLVED
0x08DA3752:0x22E6CDAB //NID RESOLVED
0x34C36FF9:0x691779D8 //NID RESOLVED
0x9E6E060F:0xC325BF4B //NID RESOLVED
0x346B2621:0x79AF1E3C //NID RESOLVED
0xEF4A7CC7:0x7E4866B0 //NID RESOLVED
0x1F3FE666:0xF216A5C8 //NID RESOLVED
0xF3CF57F1:0x1392019E //NID RESOLVED
0x3357EE5C:0x05DDCF97 //NID RESOLVED
0xEA5B9823:0xA2B95839 //NID RESOLVED
0xEC0DE439:0x43CAE8DB //NID RESOLVED
0xE0DDFE18:0x14887DD6 //NID RESOLVED
0xE20D08FE:0xB85D3405 //NID RESOLVED
0xBDA16E46:0xF3186284 //NID RESOLVED
0xA6776FB4:0x6FCB027D //NID RESOLVED
0xF953EF93:0xC38B6F9B //NID RESOLVED
0xCE23DE10:0xEC6915C2 //NID RESOLVED
0x48AB0E44:0xCCE484C6 //NID RESOLVED
0xEC37C549:0xB0151DFD //NID RESOLVED
0x628F2351:0x3A67BD9B //NID RESOLVED
0x051186F3:0xDD182ADD //NID RESOLVED
0xCE76F93E:0xC05FEEA3 //NID RESOLVED
0x8EDF1AD7:0x6E2C46EC //NID RESOLVED
0xEE81C5B1:0x61EB0F0D //NID RESOLVED
0x8DDA4CA6:0xB4F2E7AB //NID RESOLVED
0x52B74B6C:0x4792EFF0 //NID RESOLVED
0x1B17D3E3:0x725DEB89 //NID RESOLVED
0x5F19C00F:0xC783AEFA //NID RESOLVED
0x3C739F57:0xC146C4CF //NID RESOLVED
0x14909C63:0x43A7052A //NID RESOLVED
0xD653E02E:0xF24CC87A //NID RESOLVED
0x565EF519:0xB94B011A //NID RESOLVED
0x72EDA9AF:0xA33EA207 //NID RESOLVED
0xC68F1573:0x315CABD2 //NID RESOLVED
0xA975F224:0x87FF42E5 //NID RESOLVED
0x9C4266FC:0x1516FEBC //NID RESOLVED
0x05727A0B:0x729C6178 //NID RESOLVED
0x7C8A5503:0xDCA40C65 //NID RESOLVED
0x2C03E53E:0x986F0E02 //NID RESOLVED
0xBF458F40:0xDBCEDFE9 //NID RESOLVED
0x5DE346EE:0x8B9B4873 //NID RESOLVED
0xF6BB4649:0xB2C3A628 //NID RESOLVED
0xCCCA3C43:0xE442289C //NID RESOLVED
0x91E183CB:0x21A2F163 //NID RESOLVED
0x19D5A97A:0x7EEB4188 //NID RESOLVED
0x1C72ACAA:0x040EE823 //NID RESOLVED
0xE448FD3F:0x26D8C007 //NID RESOLVED
0xC8E3FA97:0x55608EFA //NID RESOLVED
0x71AE1BCE:0xD3BAD761 //NID RESOLVED
0x56A73EDD:0xE42768B0 //NID RESOLVED
0x1970F81B:0x064CBEFA 
0xF40A4518:0xD89613B8 
0xC0B42648:0x55733037 
0xEDD038D1:0x447ACF0C 
0xF71E3A4D:0x162B2559 
0xD8A0E49F:0x97745810 
@sceDve_driver
0x0836B2B5:0x1C746CD2 //NID RESOLVED
0x17BC42E4:0x6E0F0A5A //NID RESOLVED
0xADE8C471:0x01A3B89B //NID RESOLVED
0xD986F31B:0x7392121D //NID RESOLVED
0xB7827F16:0x8ED0BC91 //NID RESOLVED
0x34E9274D:0x2E4D6C23 //NID RESOLVED
0xE84E975E:0xD3AF8097 //NID RESOLVED
0x0B85524C:0x9DAE67BC //NID RESOLVED
0xA265B504:0x1C67572C //NID RESOLVED
0xAE2A6570:0xD7CA3CCE //NID RESOLVED
0xB2E4E437:0x92830E89 //NID RESOLVED
0xD8863512:0xFA89E42C //NID RESOLVED
0xDEB2F80C:0xAA085C2A //NID RESOLVED
0xA2D53F99:0x3AEF22E3 //NID RESOLVED
0xF0CF5A67:0x3FFA90A3 //NID RESOLVED
0x93828323:0x0DD3C1B4 //NID RESOLVED
0xBF910381:0x3AA978BB //NID RESOLVED
0x36970008:0x578C8A6C //NID RESOLVED
0x59E1B113:0xB22FBD95 //NID RESOLVED
0xC9362C91:0xEDD3BF59 //NID RESOLVED
0x22D50DA7:0xE2E84747 //NID RESOLVED
0x292F15DA:0xB6609201 //NID RESOLVED
0xE9EEB66E:0x1D197DCD 
0x46E070DD:0xB51F7D86 
@sceUmd
0x659587F7:0x24E838BA //NID RESOLVED
0xAE53DC2D:0x507AB2B8 //NID RESOLVED
0x230666E3:0x7E185F98 //NID RESOLVED
0x319ED97C:0xE42F8D12 //NID RESOLVED
0x38503380:0x1228C54A //NID RESOLVED
0x086DDC0D:0xE8909D7B //NID RESOLVED
0x4832ABF3:0x5BB22C42 //NID RESOLVED
0x4BA25F4A:0xF80E731B //NID RESOLVED
0xBD2BDE07:0x6E350FE4 //NID RESOLVED
0xAEE7404D:0x58708431 //NID RESOLVED
0x46EBB729:0x8213F674 //NID RESOLVED
0x6AF9B50A:0x145DBD8C //NID RESOLVED
0x87533940:0xB1E889EB //NID RESOLVED
0xCBE9F02A:0xE34F613F //NID RESOLVED
0x3D0DECD5:0x8C486A4F //NID RESOLVED
0xD45D1FE6:0x7E45DF26 //NID RESOLVED
0xD01B2DC6:0x80CA9429 //NID RESOLVED
0x3925CBD8:0xD0F6CBDD //NID RESOLVED
0x9B22AED7:0x3F826E9B //NID RESOLVED
0x71F81482:0x749B5538 //NID RESOLVED
0x7850F057:0x04349047 //NID RESOLVED
0x27A764A1:0x3C650E45 //NID RESOLVED
0xF8352373:0xAA66D818 //NID RESOLVED
0x5469DC37:0xAC4709C0 //NID RESOLVED
0x2D81508D:0xFD058E55 //NID RESOLVED
0x56202973:0xF0E95430 //NID RESOLVED
0x4A9E5E29:0xFAAA2DC6 //NID RESOLVED
0x075F1E0B:0x8799D350 //NID RESOLVED
0x340B7686:0x47B447E5 //NID RESOLVED
0xEB56097E:0xF4DF9EDE //NID RESOLVED
0x6A41ED25:0x107064CC //NID RESOLVED
0x4C952ACF:0xC886430B //NID RESOLVED
0xF2D0EDFB:0x8213F674 //NID RESOLVED
@sceDmacplus_driver
0x29B50A82:0x8A0E1D73 //NID RESOLVED
0x8AE579CD:0xC9DFF0CB //NID RESOLVED
0x241601AE:0x843241D0 //NID RESOLVED
0xF8C7C180:0x0AB8C245 //NID RESOLVED
0x576522BC:0x7CE02CDC //NID RESOLVED
0x1D73DDA8:0xAF5B0967 //NID RESOLVED
0x74323807:0xF634154D //NID RESOLVED
0x3A98EE05:0xF2761EEB //NID RESOLVED
0xB2EFA681:0xABF36494 //NID RESOLVED
0x4B980588:0x5B73607B //NID RESOLVED
0x3438DA0B:0x639DFB43 //NID RESOLVED
0x58DE4914:0x1272EA9B //NID RESOLVED
0xBE693828:0xEFF77700 //NID RESOLVED
0xAB49D2CB:0xA049D27E //NID RESOLVED
0x2D5940FF:0x1D67496B //NID RESOLVED
0x28558DBF:0x9C38787B //NID RESOLVED
0xFD183BCF:0x7DD37DF5 //NID RESOLVED
0x58C380BB:0xA01D320B //NID RESOLVED
0xC7D33466:0x70DB6434 //NID RESOLVED
@end